module customer-profile

go 1.17

require github.com/jinzhu/gorm v1.9.16

require github.com/go-sql-driver/mysql v1.5.0 // indirect

require (
	github.com/dgrijalva/jwt-go v3.2.0+incompatible
	github.com/gorilla/mux v1.8.0
	github.com/jinzhu/inflection v1.0.0 // indirect
	github.com/rs/cors v1.8.2
	golang.org/x/crypto v0.0.0-20220214200702-86341886e292
)
